{
  "command" : "chkp-os-installed_jumbo_take",
  "metrics" : [ {
    "tags" : {
      "im.metric-type" : "runtime",
      "im.name" : "hotfix-jumbo-take"
    },
    "value" : {
      "value" : "185"
    }
  } ]
}
