{
  "command" : "radware-hardDiskCur",
  "metrics" : [ {
    "tags" : {
      "display-name" : "Disk - Used",
      "file-system" : "base",
      "im.dstype" : "gauge",
      "im.dstype.displaytype" : "kilobytes",
      "im.metric-type" : "ts",
      "im.name" : "disk-used-kbytes",
      "live-config" : "true"
    },
    "value" : "7.5497472E7"
  } ]
}
