{
  "command" : "switchCapSLBSessionsCurrEnt",
  "metrics" : [ {
    "tags" : {
      "display-name" : "SLB Sessions - Current",
      "im.dstype.displaytype" : "number",
      "im.name" : "concurrent-connections",
      "live-config" : "true"
    },
    "value" : "107795.0"
  } ]
}
