{
  "command" : "radware-switchCapDynamicDataStoreCurSize",
  "metrics" : [ {
    "tags" : {
      "display-name" : "Dynamic Date Store - Used",
      "im.dstype.displaytype" : "number",
      "im.name" : "dynamic-data-store-usage",
      "live-config" : "true"
    },
    "value" : "0.0"
  } ]
}
