{
  "command" : "chkp-vendor-interrogation",
  "tags" : {
    "asg" : "true",
    "chassis" : "true",
    "model" : "61000",
    "os.name" : "gaia",
    "os.version" : "R76SP.30",
    "vendor" : "checkpoint"
  }
}
