{
  "command" : "chkp-cphaprob-state-monitoring-novsx",
  "metrics" : [ {
    "tags" : {
      "im.metric-type" : "runtime",
      "im.name" : "cluster-member-states",
      "name" : "ClusterXL"
    },
    "value" : [ {
      "is-local" : "1",
      "state-description" : "Standby",
      "id" : "1",
      "assigned-load-percentage" : "100%",
      "unique-ip" : "10.253.240.29"
    }, {
      "is-local" : "0",
      "state-description" : "Active",
      "id" : "2",
      "assigned-load-percentage" : "0%",
      "unique-ip" : "10.253.240.30"
    } ]
  }, {
    "tags" : {
      "im.metric-type" : "runtime",
      "im.name" : "cluster-mode",
      "name" : "ClusterXL"
    },
    "value" : {
      "value" : "High Availability (Active Up) with IGMP Membership"
    }
  }, {
    "tags" : {
      "display-name" : "Cluster Member State (this)",
      "im.dstype" : "gauge",
      "im.dstype.displaytype" : "state",
      "im.identity-tags" : "cluster-member-state-description",
      "im.metric-type" : "ts",
      "im.name" : "cluster-member-active",
      "live-config" : "true",
      "name" : "ClusterXL"
    },
    "value" : "0.0"
  }, {
    "tags" : {
      "display-name" : "Cluster State",
      "im.dstype" : "gauge",
      "im.dstype.displaytype" : "state",
      "im.identity-tags" : "name",
      "im.metric-type" : "ts",
      "im.name" : "cluster-state",
      "live-config" : "true",
      "name" : "ClusterXL"
    },
    "value" : "1.0"
  } ]
}
