{
  "command" : "f5-rest-mgmt-tm-ltm-pool",
  "metrics" : [ {
    "tags" : {
      "im.name" : "f5-default-action-on-service-down",
      "name" : "/Common/pool_with_default_https_member_monitor"
    },
    "value" : {
      "value" : "true"
    }
  }, {
    "tags" : {
      "im.name" : "f5-default-action-on-service-down",
      "name" : "/Common/pool_with_default_https_monitor"
    },
    "value" : {
      "value" : "true"
    }
  }, {
    "tags" : {
      "im.name" : "f5-default-action-on-service-down",
      "name" : "/Common/site1_pool"
    },
    "value" : {
      "value" : "false"
    }
  }, {
    "tags" : {
      "im.name" : "lb-pool-member-availability",
      "name" : "/Common/INDENI-SERVER:80",
      "pool-name" : "/Common/site1_pool"
    },
    "value" : "1.0"
  }, {
    "tags" : {
      "im.name" : "lb-pool-member-availability",
      "name" : "/Common/INDENI-SERVER:80",
      "pool-name" : "/Common/site2_pool"
    },
    "value" : "1.0"
  }, {
    "tags" : {
      "im.name" : "f5-default-action-on-service-down",
      "name" : "/Common/emptypool"
    },
    "value" : {
      "value" : "true"
    }
  }, {
    "tags" : {
      "im.name" : "f5-default-action-on-service-down",
      "name" : "/Common/poolthatisdown_pool"
    },
    "value" : {
      "value" : "true"
    }
  }, {
    "tags" : {
      "im.name" : "f5-default-action-on-service-down",
      "name" : "/Common/site2_pool"
    },
    "value" : {
      "value" : "false"
    }
  }, {
    "tags" : {
      "im.name" : "lb-pool-capacity",
      "name" : "/Common/pool_with_default_https_monitor"
    },
    "value" : "0.0"
  }, {
    "tags" : {
      "im.name" : "lb-pool-capacity",
      "name" : "/Common/poolthatisdown_pool"
    },
    "value" : "0.0"
  }, {
    "tags" : {
      "im.name" : "lb-pool-capacity",
      "name" : "/Common/site1_pool"
    },
    "value" : "100.0"
  }, {
    "tags" : {
      "im.name" : "lb-pool-member-availability",
      "name" : "/Common/INDENI-SERVER:81",
      "pool-name" : "/Common/half_capacity_pool"
    },
    "value" : "1.0"
  }, {
    "tags" : {
      "im.name" : "lb-pool-member-availability",
      "name" : "/Common/INDENI-SERVER:81",
      "pool-name" : "/Common/site1_pool"
    },
    "value" : "1.0"
  }, {
    "tags" : {
      "im.name" : "lb-pool-member-availability",
      "name" : "/Common/INDENI-SERVER:90",
      "pool-name" : "/Common/poolthatisdown_pool"
    },
    "value" : "0.0"
  }, {
    "tags" : {
      "im.name" : "lb-pool-member-availability",
      "name" : "/Common/INDENI-SERVER:91",
      "pool-name" : "/Common/poolthatisdown_pool"
    },
    "value" : "0.0"
  }, {
    "tags" : {
      "im.name" : "lb-pool-member-availability",
      "name" : "/Common/NODETHATISDOWN:443",
      "pool-name" : "/Common/pool_with_default_https_member_monitor"
    },
    "value" : "0.0"
  }, {
    "tags" : {
      "im.name" : "lb-pool-member-availability",
      "name" : "/Common/NODETHATISDOWN:443",
      "pool-name" : "/Common/pool_with_default_https_monitor"
    },
    "value" : "0.0"
  }, {
    "tags" : {
      "im.name" : "lb-pool-member-availability",
      "name" : "/Common/NODETHATISDOWN:81",
      "pool-name" : "/Common/half_capacity_pool"
    },
    "value" : "0.0"
  }, {
    "tags" : {
      "im.name" : "lb-pool-member-state",
      "name" : "/Common/INDENI-SERVER:80",
      "pool-name" : "/Common/site1_pool"
    },
    "value" : "1.0"
  }, {
    "tags" : {
      "im.name" : "lb-pool-member-state",
      "name" : "/Common/INDENI-SERVER:80",
      "pool-name" : "/Common/site2_pool"
    },
    "value" : "1.0"
  }, {
    "tags" : {
      "im.name" : "lb-pool-member-state",
      "name" : "/Common/INDENI-SERVER:81",
      "pool-name" : "/Common/half_capacity_pool"
    },
    "value" : "1.0"
  }, {
    "tags" : {
      "im.name" : "lb-pool-member-state",
      "name" : "/Common/INDENI-SERVER:81",
      "pool-name" : "/Common/site1_pool"
    },
    "value" : "1.0"
  }, {
    "tags" : {
      "im.name" : "lb-pool-member-state",
      "name" : "/Common/INDENI-SERVER:90",
      "pool-name" : "/Common/poolthatisdown_pool"
    },
    "value" : "1.0"
  }, {
    "tags" : {
      "im.name" : "lb-pool-member-state",
      "name" : "/Common/INDENI-SERVER:91",
      "pool-name" : "/Common/poolthatisdown_pool"
    },
    "value" : "1.0"
  }, {
    "tags" : {
      "im.name" : "lb-pool-member-state",
      "name" : "/Common/NODETHATISDOWN:443",
      "pool-name" : "/Common/pool_with_default_https_member_monitor"
    },
    "value" : "1.0"
  }, {
    "tags" : {
      "im.name" : "lb-pool-member-state",
      "name" : "/Common/NODETHATISDOWN:443",
      "pool-name" : "/Common/pool_with_default_https_monitor"
    },
    "value" : "1.0"
  }, {
    "tags" : {
      "im.name" : "lb-pool-capacity",
      "name" : "/Common/half_capacity_pool"
    },
    "value" : "50.0"
  }, {
    "tags" : {
      "im.name" : "lb-pool-capacity",
      "name" : "/Common/pool_with_default_https_member_monitor"
    },
    "value" : "0.0"
  }, {
    "tags" : {
      "im.name" : "lb-pool-capacity",
      "name" : "/Common/site2_pool"
    },
    "value" : "100.0"
  }, {
    "tags" : {
      "im.name" : "lb-pool-member-availability",
      "name" : "/Common/INDENI-SERVER:81",
      "pool-name" : "/Common/site2_pool"
    },
    "value" : "1.0"
  }, {
    "tags" : {
      "im.name" : "lb-pool-member-state",
      "name" : "/Common/INDENI-SERVER:81",
      "pool-name" : "/Common/site2_pool"
    },
    "value" : "1.0"
  }, {
    "tags" : {
      "im.name" : "lb-pool-member-state",
      "name" : "/Common/NODETHATISDOWN:81",
      "pool-name" : "/Common/half_capacity_pool"
    },
    "value" : "1.0"
  }, {
    "tags" : {
      "im.name" : "f5-default-action-on-service-down",
      "name" : "/Common/half_capacity_pool"
    },
    "value" : {
      "value" : "true"
    }
  } ]
}
