{
	"device-id": "580f5a74-f922-476a-a3f6-1312710f1ae7",
	"name" : "panw_7050_1",
	"ip": "192.168.161.11",
	"tags": {
		"vendor": "paloaltonetworks",
		"os.name": "panos", 
		"os.version": "7.1.0", 
		"model": "PA-7050", 
		"high-availability": "true", 
		"cluster-id": "00:50:56:80:53:8e"
	}
}
