{
  "command" : "nexus-show-inventory",
  "metrics" : [ {
    "tags" : {
      "im.metric-type" : "runtime",
      "im.name" : "serial-numbers"
    },
    "value" : [ {
      "serial-number" : "FXS1123Q999",
      "name" : "N2K-C2248TP-E-1GE"
    }, {
      "name" : "N2K-C2248TP-E-1GE",
      "serial-number" : "FXS1123Q999"
    }, {
      "serial-number" : "FXS1123Q999",
      "name" : "N2K-C2248-FAN"
    }, {
      "name" : "N2200-PDC-400W",
      "serial-number" : "FXS1123Q999"
    }, {
      "name" : "N2200-PDC-400W",
      "serial-number" : "FXS1123Q999"
    }, {
      "name" : "N2K-C2248TP-E-1GE",
      "serial-number" : "FXS1123Q999"
    }, {
      "serial-number" : "FXS1123Q999",
      "name" : "N2K-C2248TP-E-1GE"
    }, {
      "name" : "N2K-C2248-FAN",
      "serial-number" : "FXS1123Q999"
    }, {
      "serial-number" : "FXS1123Q999",
      "name" : "N2200-PDC-400W"
    }, {
      "name" : "N2200-PDC-400W",
      "serial-number" : "FXS1123Q999"
    }, {
      "serial-number" : "FXS1123Q999",
      "name" : "N2K-C2248TP-E-1GE"
    }, {
      "name" : "N77-DC-3KW",
      "serial-number" : "FXS1123Q999"
    }, {
      "serial-number" : "FXS1123Q999",
      "name" : "N77-DC-3KW"
    }, {
      "serial-number" : "FXS1123Q999",
      "name" : "N2K-C2248TP-E-1GE"
    }, {
      "name" : "N77-DC-3KW",
      "serial-number" : "FXS1123Q999"
    }, {
      "name" : "N2K-C2248-FAN",
      "serial-number" : "FXS1123Q999"
    }, {
      "name" : "N2200-PDC-400W",
      "serial-number" : "FXS1123Q999"
    }, {
      "name" : "N77-DC-3KW",
      "serial-number" : "FXS1123Q999"
    }, {
      "serial-number" : "FXS1123Q999",
      "name" : "N2200-PDC-400W"
    }, {
      "name" : "N77-C7706-FAN",
      "serial-number" : "FXS1123Q999"
    }, {
      "serial-number" : "FXS1123Q999",
      "name" : "N77-C7706-FAN"
    }, {
      "serial-number" : "FXS1123Q999",
      "name" : "N2K-C2248TP-E-1GE"
    }, {
      "serial-number" : "FXS1123Q999",
      "name" : "N77-C7706-FAN"
    }, {
      "serial-number" : "FXS1123Q999",
      "name" : "N2K-C2248TP-E-1GE"
    }, {
      "serial-number" : "FXS1123Q999",
      "name" : "N2K-C2248TP-E-1GE"
    }, {
      "serial-number" : "FXS1123Q999",
      "name" : "N2K-C2248-FAN"
    }, {
      "name" : "N2K-C2248TP-E-1GE",
      "serial-number" : "FXS1123Q999"
    }, {
      "serial-number" : "FXS1123Q999",
      "name" : "N2K-C2248-FAN"
    }, {
      "name" : "N77-C7706",
      "serial-number" : "FXS1123Q999"
    }, {
      "serial-number" : "FXS1123Q999",
      "name" : "N77-F312CK-26"
    }, {
      "serial-number" : "FXS1123Q999",
      "name" : "N77-F348XP-23"
    }, {
      "name" : "N77-SUP2E",
      "serial-number" : "FXS1123Q999"
    }, {
      "name" : "N77-SUP2E",
      "serial-number" : "FXS1123Q999"
    }, {
      "name" : "N77-F348XP-23",
      "serial-number" : "FXS1123Q999"
    }, {
      "serial-number" : "FXS1123Q999",
      "name" : "N77-C7706-FAB-2"
    }, {
      "name" : "N77-C7706-FAB-2",
      "serial-number" : "FXS1123Q999"
    }, {
      "name" : "N77-C7706-FAB-2",
      "serial-number" : "FXS1123Q999"
    }, {
      "serial-number" : "FXS1123Q999",
      "name" : "N2200-PDC-400W"
    }, {
      "name" : "N2200-PDC-400W",
      "serial-number" : "FXS1123Q999"
    }, {
      "name" : "N2200-PDC-400W",
      "serial-number" : "FXS1123Q999"
    }, {
      "name" : "N2200-PDC-400W",
      "serial-number" : "FXS1123Q999"
    } ]
  } ]
}
