{
  "command" : "nexus-show-environment",
  "metrics" : [ {
    "tags" : {
      "display-name" : "Fan Status",
      "im.dstype.displaytype" : "state",
      "im.identity-tags" : "name",
      "im.name" : "hardware-element-status",
      "live-config" : "true",
      "name" : "Fan Fan1(sys_fan1)"
    },
    "value" : "1.0"
  }, {
    "tags" : {
      "display-name" : "Fan Status",
      "im.dstype.displaytype" : "state",
      "im.identity-tags" : "name",
      "im.name" : "hardware-element-status",
      "live-config" : "true",
      "name" : "Fan Fan2(sys_fan2)"
    },
    "value" : "1.0"
  }, {
    "tags" : {
      "display-name" : "Fan Status",
      "im.dstype.displaytype" : "state",
      "im.identity-tags" : "name",
      "im.name" : "hardware-element-status",
      "live-config" : "true",
      "name" : "Fan Fan3(sys_fan3)"
    },
    "value" : "1.0"
  }, {
    "tags" : {
      "display-name" : "Fan Status",
      "im.dstype.displaytype" : "state",
      "im.identity-tags" : "name",
      "im.name" : "hardware-element-status",
      "live-config" : "true",
      "name" : "Fan Fan4(sys_fan4)"
    },
    "value" : "1.0"
  }, {
    "tags" : {
      "display-name" : "Fan Status",
      "im.dstype.displaytype" : "state",
      "im.identity-tags" : "name",
      "im.name" : "hardware-element-status",
      "live-config" : "true",
      "name" : "Fan Fan_in_PS1"
    },
    "value" : "1.0"
  }, {
    "tags" : {
      "display-name" : "Fan Status",
      "im.dstype.displaytype" : "state",
      "im.identity-tags" : "name",
      "im.name" : "hardware-element-status",
      "live-config" : "true",
      "name" : "Fan Fan_in_PS2"
    },
    "value" : "1.0"
  }, {
    "tags" : {
      "display-name" : "Power Supply Status",
      "im.dstype.displaytype" : "state",
      "im.identity-tags" : "name",
      "im.name" : "hardware-element-status",
      "live-config" : "true",
      "name" : "Power Supply 1"
    },
    "value" : "1.0"
  }, {
    "tags" : {
      "display-name" : "Power Supply Status",
      "im.dstype.displaytype" : "state",
      "im.identity-tags" : "name",
      "im.name" : "hardware-element-status",
      "live-config" : "true",
      "name" : "Power Supply 2"
    },
    "value" : "1.0"
  }, {
    "tags" : {
      "display-name" : "Temperature Status",
      "im.dstype.displaytype" : "state",
      "im.identity-tags" : "name",
      "im.name" : "hardware-element-status",
      "live-config" : "true",
      "name" : "Temperature Module 1 Sensor BACK"
    },
    "value" : "1.0"
  }, {
    "tags" : {
      "display-name" : "Temperature Status",
      "im.dstype.displaytype" : "state",
      "im.identity-tags" : "name",
      "im.name" : "hardware-element-status",
      "live-config" : "true",
      "name" : "Temperature Module 1 Sensor CPU"
    },
    "value" : "1.0"
  }, {
    "tags" : {
      "display-name" : "Temperature Status",
      "im.dstype.displaytype" : "state",
      "im.identity-tags" : "name",
      "im.name" : "hardware-element-status",
      "live-config" : "true",
      "name" : "Temperature Module 1 Sensor DONNER"
    },
    "value" : "1.0"
  }, {
    "tags" : {
      "display-name" : "Temperature Status",
      "im.dstype.displaytype" : "state",
      "im.identity-tags" : "name",
      "im.name" : "hardware-element-status",
      "live-config" : "true",
      "name" : "Temperature Module 1 Sensor FRONT"
    },
    "value" : "1.0"
  }, {
    "tags" : {
      "display-name" : "Temperature Status",
      "im.dstype.displaytype" : "state",
      "im.identity-tags" : "name",
      "im.name" : "hardware-element-status",
      "live-config" : "true",
      "name" : "Temperature Module 1 Sensor TD2"
    },
    "value" : "1.0"
  } ]
}
