{
  "command" : "nexus-show-version-interrogation",
  "tags" : {
    "hostname" : "chickenhawk",
    "model" : "Nexus5548",
    "os.name" : "nxos",
    "os.version" : "6.0(2)N2(4)",
    "product" : "switch",
    "vendor" : "cisco"
  }
}
