{
  "command" : "nexus-show-system-resources",
  "metrics" : [ {
    "tags" : {
      "cpu-id" : "CPU0",
      "cpu-is-avg" : "false",
      "display-name" : "CPU Usage",
      "im.dstype" : "gauge",
      "im.dstype.displaytype" : "percentage",
      "im.identity-tags" : "cpu-id",
      "im.metric-type" : "ts",
      "im.name" : "cpu-usage",
      "im.step" : "60",
      "live-config" : "true",
      "resource-metric" : "true"
    },
    "value" : "1.0"
  }, {
    "tags" : {
      "display-name" : "Memory: Total",
      "im.dstype" : "gauge",
      "im.dstype.displaytype" : "kilobytes",
      "im.identity-tags" : "name",
      "im.metric-type" : "ts",
      "im.name" : "memory-total-kbytes",
      "im.step" : "60",
      "live-config" : "true",
      "name" : "System Memory"
    },
    "value" : "8253856.0"
  }, {
    "tags" : {
      "display-name" : "Memory: Used",
      "im.dstype" : "gauge",
      "im.dstype.displaytype" : "kilobytes",
      "im.identity-tags" : "name",
      "im.metric-type" : "ts",
      "im.name" : "memory-used-kbytes",
      "im.step" : "60",
      "live-config" : "true",
      "name" : "System Memory"
    },
    "value" : "2285232.0"
  }, {
    "tags" : {
      "display-name" : "Memory Usage (Percent)",
      "im.dstype" : "gauge",
      "im.dstype.displaytype" : "percentage",
      "im.identity-tags" : "name",
      "im.metric-type" : "ts",
      "im.name" : "memory-usage",
      "im.step" : "60",
      "live-config" : "true",
      "name" : "System Memory",
      "resource-metric" : "true"
    },
    "value" : "0.2768684115642434"
  }, {
    "tags" : {
      "cpu-id" : "CPU",
      "cpu-is-avg" : "true",
      "display-name" : "CPU Usage",
      "im.dstype" : "gauge",
      "im.dstype.displaytype" : "percentage",
      "im.identity-tags" : "cpu-id",
      "im.metric-type" : "ts",
      "im.name" : "cpu-usage",
      "im.step" : "60",
      "live-config" : "true",
      "resource-metric" : "true"
    },
    "value" : "1.0"
  }, {
    "tags" : {
      "cpu-id" : "CPU1",
      "cpu-is-avg" : "false",
      "display-name" : "CPU Usage",
      "im.dstype" : "gauge",
      "im.dstype.displaytype" : "percentage",
      "im.identity-tags" : "cpu-id",
      "im.metric-type" : "ts",
      "im.name" : "cpu-usage",
      "im.step" : "60",
      "live-config" : "true",
      "resource-metric" : "true"
    },
    "value" : "1.0"
  }, {
    "tags" : {
      "display-name" : "Memory: Free",
      "im.dstype" : "gauge",
      "im.dstype.displaytype" : "kilobytes",
      "im.identity-tags" : "name",
      "im.metric-type" : "ts",
      "im.name" : "memory-free-kbytes",
      "im.step" : "60",
      "live-config" : "true",
      "name" : "System Memory"
    },
    "value" : "5968624.0"
  } ]
}
