{
  "command" : "nexus-show-inventory-max-resources",
  "metrics" : [ {
    "tags" : {
      "im.dstype" : "gauge",
      "im.metric-type" : "ts",
      "im.name" : "arp-limit",
      "im.step" : "2592000"
    },
    "value" : "60000.0"
  }, {
    "tags" : {
      "im.dstype" : "gauge",
      "im.metric-type" : "ts",
      "im.name" : "neighbor-discovery-limit",
      "im.step" : "2592000"
    },
    "value" : "30000.0"
  }, {
    "tags" : {
      "im.dstype" : "gauge",
      "im.metric-type" : "ts",
      "im.name" : "routes-limit",
      "im.step" : "2592000"
    },
    "value" : "56000.0"
  }, {
    "tags" : {
      "im.dstype" : "gauge",
      "im.metric-type" : "ts",
      "im.name" : "routes-limit-ipv6",
      "im.step" : "2592000"
    },
    "value" : "56000.0"
  } ]
}
