{
  "command" : "nexus-show-inventory",
  "metrics" : [ {
    "tags" : {
      "im.metric-type" : "runtime",
      "im.name" : "serial-numbers"
    },
    "value" : [ {
      "name" : "",
      "serial-number" : "SSI14430C31"
    }, {
      "name" : "N2200-PAC-400W",
      "serial-number" : "LIT14291UFS"
    }, {
      "name" : "N5K-PAC-750W",
      "serial-number" : "LIT14291Q4B"
    } ]
  } ]
}
