{
  "command" : "nexus-show-ip-route-static",
  "metrics" : [ {
    "tags" : {
<<<<<<< HEAD
      "display-name" : "Static Routing Table",
      "im.metric-type" : "runtime",
      "im.name" : "static-routing-table",
      "live-config" : "true"
=======
      "im.metric-type" : "runtime",
      "im.name" : "static-routing-table"
>>>>>>> bf60604d3ecdfd05d33baa276b55f01311829132
    },
    "value" : [ {
      "next-hop" : "10.28.1.16",
      "mask" : "0",
      "network" : "0.0.0.0"
    }, {
      "next-hop" : "10.28.1.21",
      "mask" : "0",
      "network" : "0.0.0.0"
    }, {
      "network" : "10.100.100.0",
      "next-hop" : "10.30.10.10",
      "mask" : "24"
    }, {
      "next-hop" : "10.30.10.101",
      "mask" : "16",
      "network" : "10.160.0.0"
    }, {
      "network" : "10.170.0.0",
      "next-hop" : "10.30.10.101",
      "mask" : "16"
    }, {
      "mask" : "16",
      "network" : "192.168.0.0",
      "next-hop" : "10.30.10.101"
    } ]
  } ]
}
