{
  "command" : "panos-debug-device-server-show",
  "metrics" : [ {
    "tags" : {
      "im.dstype" : "gauge",
      "im.metric-type" : "ts",
      "im.name" : "debug-status",
      "im.step" : "3600",
      "name" : "debug.device-server.show"
    },
    "value" : "1.0"
  } ]
}
