{
  "command" : "panos-show-routing-route",
  "metrics" : [ {
    "tags" : {
      "display-name" : "Connected Networks",
      "im.name" : "connected-networks-table",
      "live-config" : "true"
    },
    "value" : [ {
      "network" : "10.3.3.0",
      "mask" : "24"
    } ]
  }, {
    "tags" : {
      "display-name" : "Static Routes",
      "im.name" : "static-routing-table",
      "live-config" : "true"
    },
    "value" : [ {
      "network" : "10.1.4.0",
      "next-hop" : "10.20.30.1",
      "mask" : "22"
    } ]
  }, {
    "tags" : {
      "display-name" : "Routes - Count",
      "im.dstype.displaytype" : "number",
      "im.name" : "routes-usage",
      "live-config" : "true"
    },
    "value" : "5.0"
  } ]
}
