{
  "command" : "panos-show_system_logdb-quota",
  "metrics" : [ {
    "tags" : {
      "display-name" : "Log Usage",
      "im.dstype" : "gauge",
      "im.dstype.displaytype" : "percentage",
      "im.identity-tags" : "name",
      "im.metric-type" : "ts",
      "im.name" : "logdb-usage",
      "im.step" : "600",
      "live-config" : "true",
      "name" : "alarm"
    },
    "value" : "3.0"
  }, {
    "tags" : {
      "display-name" : "Log Usage",
      "im.dstype" : "gauge",
      "im.dstype.displaytype" : "percentage",
      "im.identity-tags" : "name",
      "im.metric-type" : "ts",
      "im.name" : "logdb-usage",
      "im.step" : "600",
      "live-config" : "true",
      "name" : "application-pcaps"
    },
    "value" : "1.0"
  }, {
    "tags" : {
      "display-name" : "Log Usage",
      "im.dstype" : "gauge",
      "im.dstype.displaytype" : "percentage",
      "im.identity-tags" : "name",
      "im.metric-type" : "ts",
      "im.name" : "logdb-usage",
      "im.step" : "600",
      "live-config" : "true",
      "name" : "appstat"
    },
    "value" : "6.0"
  }, {
    "tags" : {
      "display-name" : "Log Usage",
      "im.dstype" : "gauge",
      "im.dstype.displaytype" : "percentage",
      "im.identity-tags" : "name",
      "im.metric-type" : "ts",
      "im.name" : "logdb-usage",
      "im.step" : "600",
      "live-config" : "true",
      "name" : "config"
    },
    "value" : "4.0"
  }, {
    "tags" : {
      "display-name" : "Log Usage",
      "im.dstype" : "gauge",
      "im.dstype.displaytype" : "percentage",
      "im.identity-tags" : "name",
      "im.metric-type" : "ts",
      "im.name" : "logdb-usage",
      "im.step" : "600",
      "live-config" : "true",
      "name" : "dailythsum"
    },
    "value" : "1.0"
  }, {
    "tags" : {
      "display-name" : "Log Usage",
      "im.dstype" : "gauge",
      "im.dstype.displaytype" : "percentage",
      "im.identity-tags" : "name",
      "im.metric-type" : "ts",
      "im.name" : "logdb-usage",
      "im.step" : "600",
      "live-config" : "true",
      "name" : "dailytrsum"
    },
    "value" : "1.0"
  }, {
    "tags" : {
      "display-name" : "Log Usage",
      "im.dstype" : "gauge",
      "im.dstype.displaytype" : "percentage",
      "im.identity-tags" : "name",
      "im.metric-type" : "ts",
      "im.name" : "logdb-usage",
      "im.step" : "600",
      "live-config" : "true",
      "name" : "debug-filter-pcaps"
    },
    "value" : "1.0"
  }, {
    "tags" : {
      "display-name" : "Log Usage",
      "im.dstype" : "gauge",
      "im.dstype.displaytype" : "percentage",
      "im.identity-tags" : "name",
      "im.metric-type" : "ts",
      "im.name" : "logdb-usage",
      "im.step" : "600",
      "live-config" : "true",
      "name" : "dlp-logs"
    },
    "value" : "1.0"
  }, {
    "tags" : {
      "display-name" : "Log Usage",
      "im.dstype" : "gauge",
      "im.dstype.displaytype" : "percentage",
      "im.identity-tags" : "name",
      "im.metric-type" : "ts",
      "im.name" : "logdb-usage",
      "im.step" : "600",
      "live-config" : "true",
      "name" : "extpcap"
    },
    "value" : "1.0"
  }, {
    "tags" : {
      "display-name" : "Log Usage",
      "im.dstype" : "gauge",
      "im.dstype.displaytype" : "percentage",
      "im.identity-tags" : "name",
      "im.metric-type" : "ts",
      "im.name" : "logdb-usage",
      "im.step" : "600",
      "live-config" : "true",
      "name" : "hip-reports"
    },
    "value" : "1.0"
  }, {
    "tags" : {
      "display-name" : "Log Usage",
      "im.dstype" : "gauge",
      "im.dstype.displaytype" : "percentage",
      "im.identity-tags" : "name",
      "im.metric-type" : "ts",
      "im.name" : "logdb-usage",
      "im.step" : "600",
      "live-config" : "true",
      "name" : "hipmatch"
    },
    "value" : "3.0"
  }, {
    "tags" : {
      "display-name" : "Log Usage",
      "im.dstype" : "gauge",
      "im.dstype.displaytype" : "percentage",
      "im.identity-tags" : "name",
      "im.metric-type" : "ts",
      "im.name" : "logdb-usage",
      "im.step" : "600",
      "live-config" : "true",
      "name" : "hourlythsum"
    },
    "value" : "1.0"
  }, {
    "tags" : {
      "display-name" : "Log Usage",
      "im.dstype" : "gauge",
      "im.dstype.displaytype" : "percentage",
      "im.identity-tags" : "name",
      "im.metric-type" : "ts",
      "im.name" : "logdb-usage",
      "im.step" : "600",
      "live-config" : "true",
      "name" : "hourlytrsum"
    },
    "value" : "3.0"
  }, {
    "tags" : {
      "display-name" : "Log Usage",
      "im.dstype" : "gauge",
      "im.dstype.displaytype" : "percentage",
      "im.identity-tags" : "name",
      "im.metric-type" : "ts",
      "im.name" : "logdb-usage",
      "im.step" : "600",
      "live-config" : "true",
      "name" : "system"
    },
    "value" : "4.0"
  }, {
    "tags" : {
      "display-name" : "Log Usage",
      "im.dstype" : "gauge",
      "im.dstype.displaytype" : "percentage",
      "im.identity-tags" : "name",
      "im.metric-type" : "ts",
      "im.name" : "logdb-usage",
      "im.step" : "600",
      "live-config" : "true",
      "name" : "threat"
    },
    "value" : "16.0"
  }, {
    "tags" : {
      "display-name" : "Log Usage",
      "im.dstype" : "gauge",
      "im.dstype.displaytype" : "percentage",
      "im.identity-tags" : "name",
      "im.metric-type" : "ts",
      "im.name" : "logdb-usage",
      "im.step" : "600",
      "live-config" : "true",
      "name" : "thsum"
    },
    "value" : "2.0"
  }, {
    "tags" : {
      "display-name" : "Log Usage",
      "im.dstype" : "gauge",
      "im.dstype.displaytype" : "percentage",
      "im.identity-tags" : "name",
      "im.metric-type" : "ts",
      "im.name" : "logdb-usage",
      "im.step" : "600",
      "live-config" : "true",
      "name" : "traffic"
    },
    "value" : "32.0"
  }, {
    "tags" : {
      "display-name" : "Log Usage",
      "im.dstype" : "gauge",
      "im.dstype.displaytype" : "percentage",
      "im.identity-tags" : "name",
      "im.metric-type" : "ts",
      "im.name" : "logdb-usage",
      "im.step" : "600",
      "live-config" : "true",
      "name" : "trsum"
    },
    "value" : "7.0"
  }, {
    "tags" : {
      "display-name" : "Log Usage",
      "im.dstype" : "gauge",
      "im.dstype.displaytype" : "percentage",
      "im.identity-tags" : "name",
      "im.metric-type" : "ts",
      "im.name" : "logdb-usage",
      "im.step" : "600",
      "live-config" : "true",
      "name" : "userid"
    },
    "value" : "1.0"
  }, {
    "tags" : {
      "display-name" : "Log Usage",
      "im.dstype" : "gauge",
      "im.dstype.displaytype" : "percentage",
      "im.identity-tags" : "name",
      "im.metric-type" : "ts",
      "im.name" : "logdb-usage",
      "im.step" : "600",
      "live-config" : "true",
      "name" : "weeklythsum"
    },
    "value" : "1.0"
  }, {
    "tags" : {
      "display-name" : "Log Usage",
      "im.dstype" : "gauge",
      "im.dstype.displaytype" : "percentage",
      "im.identity-tags" : "name",
      "im.metric-type" : "ts",
      "im.name" : "logdb-usage",
      "im.step" : "600",
      "live-config" : "true",
      "name" : "weeklytrsum"
    },
    "value" : "1.0"
  } ]
}
