{
  "command" : "f5-rest-mgmt-tm-vcmp-guest-stats",
  "metrics" : [ {
    "tags" : {
      "im.name" : "uptime-seconds",
      "vs.name" : "mylb1.domain.local"
    },
    "value" : "6547020.0"
  }, {
    "tags" : {
      "im.name" : "uptime-seconds",
      "vs.name" : "mylb2.domain.local"
    },
    "value" : "6547048.0"
  }, {
    "tags" : {
      "im.name" : "vs-state",
      "name" : "mylb1.domain.local"
    },
    "value" : "1.0"
  }, {
    "tags" : {
      "im.name" : "vs-state",
      "name" : "mylb2.domain.local"
    },
    "value" : "0.0"
  } ]
}
