{
  "command" : "f5-tmsh-show-vcmp-global-show-vcmp-virtual-disk",
  "metrics" : [ {
    "tags" : {
      "display-name" : "vCMP guest disk use",
      "im.dstype" : "gauge",
      "im.dstype.displaytype" : "kilobytes",
      "im.identity-tags" : "name",
      "im.metric-type" : "ts",
      "im.name" : "f5-vcmp-guest-used-disk-kbytes",
      "im.step" : "3600",
      "live-config" : "true",
      "name" : "mylb1.domain.local.img"
    },
    "value" : "1.2962156E7"
  }, {
    "tags" : {
      "im.dstype" : "gauge",
      "im.metric-type" : "ts",
      "im.name" : "f5-vcmp-host-disk-total-kbytes",
      "im.step" : "3600"
    },
    "value" : "3.02614976E8"
  }, {
    "tags" : {
      "im.dstype" : "gauge",
      "im.metric-type" : "ts",
      "im.name" : "f5-vcmp-host-disk-used-kbytes",
      "im.step" : "3600"
    },
    "value" : "4.0013888E7"
  }, {
    "tags" : {
      "display-name" : "vCMP guest disk use",
      "im.dstype" : "gauge",
      "im.dstype.displaytype" : "kilobytes",
      "im.identity-tags" : "name",
      "im.metric-type" : "ts",
      "im.name" : "f5-vcmp-guest-used-disk-kbytes",
      "im.step" : "3600",
      "live-config" : "true",
      "name" : "mylb2.domain.local.img"
    },
    "value" : "2.7051732E7"
  }, {
    "tags" : {
      "display-name" : "vCMP host disk usage",
      "im.dstype" : "gauge",
      "im.dstype.displaytype" : "percentage",
      "im.metric-type" : "ts",
      "im.name" : "f5-vcmp-host-disk-usage-percentage",
      "im.step" : "3600",
      "live-config" : "true"
    },
    "value" : "13.222705805544798"
  } ]
}
