{
	"device-id": "b577581e-fc66-4c59-bd93-e70f8baf3ff5",
	"name" : "chkp_mdm",
	"ip": "192.168.162.13",
	"tags": {
		"vendor": "checkpoint",
		"os.name": "gaia", 
		"model": "Smart-1 150", 
		"chassis": "false", 
		"vsx": "true", 
		"mds": "true",
		"vs-count": "8",
		"role-management": "true"
	}
}
