{
  "command" : "mpstat",
  "metrics" : [ {
    "tags" : {
      "cpu-id" : "0",
      "cpu-is-avg" : "false",
      "display-name" : "CPU",
      "im.dstype" : "gauge",
      "im.dstype.displaytype" : "percentage",
      "im.identity-tags" : "cpu-id",
      "im.metric-type" : "ts",
      "im.name" : "cpu-usage",
      "im.step" : "60",
      "live-config" : "true"
    },
    "values" : ["70.1", "78.1", "83.6", "91.22", "100.0", "100.0", "100.0", "100.0", "81", "73"]
  }, {
    "tags" : {
      "cpu-id" : "1",
      "cpu-is-avg" : "false",
      "display-name" : "CPU",
      "im.dstype" : "gauge",
      "im.dstype.displaytype" : "percentage",
      "im.identity-tags" : "cpu-id",
      "im.metric-type" : "ts",
      "im.name" : "cpu-usage",
      "im.step" : "60",
      "live-config" : "true"
    },
    "value" : "62.89"
  }, {
    "tags" : {
      "cpu-id" : "2",
      "cpu-is-avg" : "false",
      "display-name" : "CPU",
      "im.dstype" : "gauge",
      "im.dstype.displaytype" : "percentage",
      "im.identity-tags" : "cpu-id",
      "im.metric-type" : "ts",
      "im.name" : "cpu-usage",
      "im.step" : "60",
      "live-config" : "true"
    },
    "value" : "40.21"
  }, {
    "tags" : {
      "cpu-id" : "all-average",
      "cpu-is-avg" : "true",
      "display-name" : "CPU",
      "im.dstype" : "gauge",
      "im.dstype.displaytype" : "percentage",
      "im.identity-tags" : "cpu-id",
      "im.metric-type" : "ts",
      "im.name" : "cpu-usage",
      "im.step" : "60",
      "live-config" : "true"
    },
    "value" : "57.88"
  } ]
}
