{
  "command" : "f5-rest-mgmt-tm-sys-host-info-stats",
  "metrics" : [ {
    "tags" : {
      "display-name" : "Memory - Usage",
      "im.dstype.displaytype" : "percentage",
      "im.identity-tags" : "name",
      "im.name" : "memory-usage",
      "live-config" : "true",
      "name" : "linux host usage - host-id 0",
      "resource-metric" : "true"
    },
    "value" : "26.2088"
  }, {
    "tags" : {
      "display-name" : "Memory - Free",
      "im.dstype.displaytype" : "kilobytes",
      "im.identity-tags" : "name",
      "im.name" : "memory-free-kbytes",
      "live-config" : "true",
      "name" : "linux-host-0"
    },
    "value" : "1.5964332E7"
  }, {
    "tags" : {
      "display-name" : "Memory - Total",
      "im.dstype.displaytype" : "kilobytes",
      "im.identity-tags" : "name",
      "im.name" : "memory-total-kbytes",
      "live-config" : "true",
      "name" : "linux-host-0"
    },
    "value" : "2.1634456E7"
  } ]
}
