{
  "command" : "f5-rest-mgmt-tm-sys-tmm-info",
  "metrics" : [ {
    "tags" : {
      "cpu-id" : "tmm-core: 0.0",
      "cpu-is-avg" : "false",
      "display-name" : "CPU",
      "im.dstype.displaytype" : "percentage",
      "im.identity-tags" : "cpu-id",
      "im.name" : "cpu-usage",
      "live-config" : "true"
    },
    "value" : "3.0"
  }, {
    "tags" : {
      "display-name" : "Memory - Free",
      "im.dstype.displaytype" : "kilobytes",
      "im.identity-tags" : "name",
      "im.name" : "memory-free-kbytes",
      "live-config" : "true",
      "name" : "tmm-core: 0.0"
    },
    "value" : "1.2036676E7"
  }, {
    "tags" : {
      "display-name" : "Memory - Total",
      "im.dstype.displaytype" : "kilobytes",
      "im.identity-tags" : "name",
      "im.name" : "memory-total-kbytes",
      "live-config" : "true",
      "name" : "tmm-core: 0.0"
    },
    "value" : "1.2750848E7"
  }, {
    "tags" : {
      "display-name" : "Memory - Usage",
      "im.dstype.displaytype" : "percentage",
      "im.identity-tags" : "name",
      "im.name" : "memory-usage",
      "live-config" : "true",
      "name" : "tmm-core: 0.0"
    },
    "value" : "5.60098"
  }, {
    "tags" : {
      "cpu-id" : "tmm-core: 0.2",
      "cpu-is-avg" : "false",
      "display-name" : "CPU",
      "im.dstype.displaytype" : "percentage",
      "im.identity-tags" : "cpu-id",
      "im.name" : "cpu-usage",
      "live-config" : "true"
    },
    "value" : "2.0"
  }, {
    "tags" : {
      "cpu-id" : "tmm-core: 0.4",
      "cpu-is-avg" : "false",
      "display-name" : "CPU",
      "im.dstype.displaytype" : "percentage",
      "im.identity-tags" : "cpu-id",
      "im.name" : "cpu-usage",
      "live-config" : "true"
    },
    "value" : "2.0"
  }, {
    "tags" : {
      "cpu-id" : "tmm-core: 0.6",
      "cpu-is-avg" : "false",
      "display-name" : "CPU",
      "im.dstype.displaytype" : "percentage",
      "im.identity-tags" : "cpu-id",
      "im.name" : "cpu-usage",
      "live-config" : "true"
    },
    "value" : "3.0"
  } ]
}
