{
  "command" : "f5-tmsh-list-sys-syslog",
  "metrics" : [ {
    "tags" : {
      "im.metric-type" : "runtime",
      "im.name" : "syslog-servers"
    },
    "value" : [ {
      "ip" : "10.0.0.10"
    }, {
      "ip" : "192.168.197.16"
    }, {
      "ip" : "10.0.0.12"
    }, {
      "ip" : "192.168.1.1"
    }, {
      "ip" : "192.168.1.2"
    }, {
      "ip" : "192.168.1.3"
    } ]
  } ]
}
