{
  "command" : "panos-show-running-resource-monitor-second",
  "metrics" : [ {
    "tags" : {
      "cpu-id" : "dp0: 0",
      "display-name" : "CPU Usage",
      "im.dstype.displaytype" : "percentage",
      "im.identity-tags" : "cpu-id",
      "im.name" : "cpu-usage",
      "live-config" : "true"
    },
    "value" : "30.0"
  }, {
    "tags" : {
      "cpu-id" : "dp0: 1",
      "display-name" : "CPU Usage",
      "im.dstype.displaytype" : "percentage",
      "im.identity-tags" : "cpu-id",
      "im.name" : "cpu-usage",
      "live-config" : "true"
    },
    "value" : "92.0"
  } ]
}
