{
  "command" : "panos-show-devices-all",
  "metrics" : [ {
    "tags" : {
      "im.name" : "trust-connection-state",
      "name" : "Macadamia (10.3.1.11)"
    },
    "value" : "1.0"
  }, {
    "tags" : {
      "im.name" : "trust-connection-state",
      "name" : "Peanut (10.3.1.10)"
    },
    "value" : "0.0"
  }, {
    "tags" : {
      "im.name" : "known-devices"
    },
    "value" : [ {
      "name" : "Macadamia",
      "ip" : "10.3.1.11"
    }, {
      "name" : "Peanut",
      "ip" : "10.3.1.10"
    } ]
  } ]
}
