{
  "command" : "panos-show_config_running-monitoring-xml",
  "metrics" : [ {
    "tags" : {
      "im.name" : "telnet-enabled"
    },
    "value" : {
      "value" : "true"
    }
  }, {
    "tags" : {
      "display-name" : "Domain",
      "im.name" : "domain",
      "live-config" : "true"
    },
    "value" : {
      "value" : "kdlab.indeni.com"
    }
  }, {
    "tags" : {
      "display-name" : "RADIUS Servers",
      "im.name" : "radius-servers",
      "live-config" : "true"
    },
    "value" : [ {
      "port" : "1812",
      "host" : "1.1.2.4"
    } ]
  }, {
    "tags" : {
      "im.name" : "unencrypted-snmp-configured"
    },
    "value" : {
      "value" : "true"
    }
  }, {
    "tags" : {
      "display-name" : "Application Packages - Acceptable Lag",
      "im.dstype.displaytype" : "duration",
      "im.name" : "app-update-acceptable-lag",
      "live-config" : "true"
    },
    "value" : "691200.0"
  }, {
    "tags" : {
      "display-name" : "Application Packages - Update Action",
      "im.dstype.displaytype" : "string",
      "im.name" : "panw-app-update-action",
      "live-config" : "true"
    },
    "value" : {
      "value" : "download-only"
    }
  }, {
    "tags" : {
      "display-name" : "DNS Servers",
      "im.name" : "dns-servers",
      "live-config" : "true"
    },
    "value" : [ {
      "ipaddress" : "8.8.8.8"
    }, {
      "ipaddress" : "8.8.8.7"
    } ]
  }, {
    "tags" : {
      "display-name" : "NTP Servers",
      "im.name" : "ntp-servers",
      "live-config" : "true"
    },
    "value" : [ {
      "ipaddress" : "0.us.pool.ntp.org"
    }, {
      "ipaddress" : "1.1.1.1"
    } ]
  }, {
    "tags" : {
      "display-name" : "Syslog Servers",
      "im.name" : "syslog-servers",
      "live-config" : "true"
    },
    "value" : [ {
      "host" : "1.1.1.1",
      "severity" : "LOG_USER"
    } ]
  }, {
    "tags" : {
      "display-name" : "Timezone",
      "im.name" : "timezone",
      "live-config" : "true"
    },
    "value" : {
      "value" : "US/Pacific"
    }
  }, {
    "tags" : {
      "display-name" : "Certificate Expiration",
      "im.dstype.displaytype" : "date",
      "im.identity-tags" : "name",
      "im.name" : "certificate-expiration",
      "live-config" : "true",
      "name" : "/CN=192.168.197.70"
    },
    "value" : "1.519175103E9"
  }, {
    "tags" : {
      "display-name" : "Login Banner",
      "im.name" : "login-banner",
      "live-config" : "true"
    },
    "value" : {
      "value" : "Beware of the KD lab manager!"
    }
  }, {
    "tags" : {
      "display-name" : "Licenses - Usage",
      "im.dstype.displaytype" : "number",
      "im.identity-tags" : "name",
      "im.name" : "license-elements-used",
      "live-config" : "true",
      "name" : "vsys"
    },
    "value" : "1.0"
  }, {
    "tags" : {
      "im.name" : "http-server-enabled"
    },
    "value" : {
      "value" : "true"
    }
  } ]
}
