{
  "command" : "chkp-asg-hw_monitor",
  "metrics" : [ {
    "tags" : {
      "display-name" : "Hardware Status",
      "im.dstype" : "gauge",
      "im.dstype.displaytype" : "state",
      "im.identity-tags" : "name",
      "im.metric-type" : "ts",
      "im.name" : "hardware-element-status",
      "im.step" : "300",
      "live-config" : "true",
      "name" : "Chassis 1: CMM: bay 1"
    },
    "value" : "1.0"
  }, {
    "tags" : {
      "display-name" : "Hardware Status",
      "im.dstype" : "gauge",
      "im.dstype.displaytype" : "state",
      "im.identity-tags" : "name",
      "im.metric-type" : "ts",
      "im.name" : "hardware-element-status",
      "im.step" : "300",
      "live-config" : "true",
      "name" : "Chassis 1: CMM: bay 2"
    },
    "value" : "1.0"
  }, {
    "tags" : {
      "display-name" : "Hardware Status",
      "im.dstype" : "gauge",
      "im.dstype.displaytype" : "state",
      "im.identity-tags" : "name",
      "im.metric-type" : "ts",
      "im.name" : "hardware-element-status",
      "im.step" : "300",
      "live-config" : "true",
      "name" : "Chassis 1: CPUtemp: blade 1 CPU0"
    },
    "value" : "1.0"
  }, {
    "tags" : {
      "display-name" : "Hardware Status",
      "im.dstype" : "gauge",
      "im.dstype.displaytype" : "state",
      "im.identity-tags" : "name",
      "im.metric-type" : "ts",
      "im.name" : "hardware-element-status",
      "im.step" : "300",
      "live-config" : "true",
      "name" : "Chassis 1: CPUtemp: blade 1 CPU1"
    },
    "value" : "1.0"
  }, {
    "tags" : {
      "display-name" : "Hardware Status",
      "im.dstype" : "gauge",
      "im.dstype.displaytype" : "state",
      "im.identity-tags" : "name",
      "im.metric-type" : "ts",
      "im.name" : "hardware-element-status",
      "im.step" : "300",
      "live-config" : "true",
      "name" : "Chassis 1: CPUtemp: blade 2 CPU0"
    },
    "value" : "1.0"
  }, {
    "tags" : {
      "display-name" : "Hardware Status",
      "im.dstype" : "gauge",
      "im.dstype.displaytype" : "state",
      "im.identity-tags" : "name",
      "im.metric-type" : "ts",
      "im.name" : "hardware-element-status",
      "im.step" : "300",
      "live-config" : "true",
      "name" : "Chassis 1: CPUtemp: blade 2 CPU1"
    },
    "value" : "1.0"
  }, {
    "tags" : {
      "display-name" : "Hardware Status",
      "im.dstype" : "gauge",
      "im.dstype.displaytype" : "state",
      "im.identity-tags" : "name",
      "im.metric-type" : "ts",
      "im.name" : "hardware-element-status",
      "im.step" : "300",
      "live-config" : "true",
      "name" : "Chassis 1: CPUtemp: blade 3 CPU0"
    },
    "value" : "1.0"
  }, {
    "tags" : {
      "display-name" : "Hardware Status",
      "im.dstype" : "gauge",
      "im.dstype.displaytype" : "state",
      "im.identity-tags" : "name",
      "im.metric-type" : "ts",
      "im.name" : "hardware-element-status",
      "im.step" : "300",
      "live-config" : "true",
      "name" : "Chassis 1: CPUtemp: blade 3 CPU1"
    },
    "value" : "1.0"
  }, {
    "tags" : {
      "display-name" : "Hardware Status",
      "im.dstype" : "gauge",
      "im.dstype.displaytype" : "state",
      "im.identity-tags" : "name",
      "im.metric-type" : "ts",
      "im.name" : "hardware-element-status",
      "im.step" : "300",
      "live-config" : "true",
      "name" : "Chassis 1: Fan: bay 1 fan 1"
    },
    "value" : "1.0"
  }, {
    "tags" : {
      "display-name" : "Hardware Status",
      "im.dstype" : "gauge",
      "im.dstype.displaytype" : "state",
      "im.identity-tags" : "name",
      "im.metric-type" : "ts",
      "im.name" : "hardware-element-status",
      "im.step" : "300",
      "live-config" : "true",
      "name" : "Chassis 1: Fan: bay 1 fan 2"
    },
    "value" : "1.0"
  }, {
    "tags" : {
      "display-name" : "Hardware Status",
      "im.dstype" : "gauge",
      "im.dstype.displaytype" : "state",
      "im.identity-tags" : "name",
      "im.metric-type" : "ts",
      "im.name" : "hardware-element-status",
      "im.step" : "300",
      "live-config" : "true",
      "name" : "Chassis 1: Fan: bay 2 fan 1"
    },
    "value" : "1.0"
  }, {
    "tags" : {
      "display-name" : "Hardware Status",
      "im.dstype" : "gauge",
      "im.dstype.displaytype" : "state",
      "im.identity-tags" : "name",
      "im.metric-type" : "ts",
      "im.name" : "hardware-element-status",
      "im.step" : "300",
      "live-config" : "true",
      "name" : "Chassis 1: Fan: bay 2 fan 2"
    },
    "value" : "1.0"
  }, {
    "tags" : {
      "display-name" : "Hardware Status",
      "im.dstype" : "gauge",
      "im.dstype.displaytype" : "state",
      "im.identity-tags" : "name",
      "im.metric-type" : "ts",
      "im.name" : "hardware-element-status",
      "im.step" : "300",
      "live-config" : "true",
      "name" : "Chassis 1: Fan: bay 3 fan 1"
    },
    "value" : "1.0"
  }, {
    "tags" : {
      "display-name" : "Hardware Status",
      "im.dstype" : "gauge",
      "im.dstype.displaytype" : "state",
      "im.identity-tags" : "name",
      "im.metric-type" : "ts",
      "im.name" : "hardware-element-status",
      "im.step" : "300",
      "live-config" : "true",
      "name" : "Chassis 1: Fan: bay 3 fan 2"
    },
    "value" : "1.0"
  }, {
    "tags" : {
      "display-name" : "Hardware Status",
      "im.dstype" : "gauge",
      "im.dstype.displaytype" : "state",
      "im.identity-tags" : "name",
      "im.metric-type" : "ts",
      "im.name" : "hardware-element-status",
      "im.step" : "300",
      "live-config" : "true",
      "name" : "Chassis 1: PowerConsumption: N/A"
    },
    "value" : "0.0"
  }, {
    "tags" : {
      "display-name" : "Hardware Status",
      "im.dstype" : "gauge",
      "im.dstype.displaytype" : "state",
      "im.identity-tags" : "name",
      "im.metric-type" : "ts",
      "im.name" : "hardware-element-status",
      "im.step" : "300",
      "live-config" : "true",
      "name" : "Chassis 1: PowerUnit(NA): bay 1"
    },
    "value" : "0.0"
  }, {
    "tags" : {
      "display-name" : "Hardware Status",
      "im.dstype" : "gauge",
      "im.dstype.displaytype" : "state",
      "im.identity-tags" : "name",
      "im.metric-type" : "ts",
      "im.name" : "hardware-element-status",
      "im.step" : "300",
      "live-config" : "true",
      "name" : "Chassis 1: PowerUnit(NA): bay 10"
    },
    "value" : "0.0"
  }, {
    "tags" : {
      "display-name" : "Hardware Status",
      "im.dstype" : "gauge",
      "im.dstype.displaytype" : "state",
      "im.identity-tags" : "name",
      "im.metric-type" : "ts",
      "im.name" : "hardware-element-status",
      "im.step" : "300",
      "live-config" : "true",
      "name" : "Chassis 1: PowerUnit(NA): bay 2"
    },
    "value" : "0.0"
  }, {
    "tags" : {
      "display-name" : "Hardware Status",
      "im.dstype" : "gauge",
      "im.dstype.displaytype" : "state",
      "im.identity-tags" : "name",
      "im.metric-type" : "ts",
      "im.name" : "hardware-element-status",
      "im.step" : "300",
      "live-config" : "true",
      "name" : "Chassis 1: PowerUnit(NA): bay 3"
    },
    "value" : "0.0"
  }, {
    "tags" : {
      "display-name" : "Hardware Status",
      "im.dstype" : "gauge",
      "im.dstype.displaytype" : "state",
      "im.identity-tags" : "name",
      "im.metric-type" : "ts",
      "im.name" : "hardware-element-status",
      "im.step" : "300",
      "live-config" : "true",
      "name" : "Chassis 1: PowerUnit(NA): bay 4"
    },
    "value" : "0.0"
  }, {
    "tags" : {
      "display-name" : "Hardware Status",
      "im.dstype" : "gauge",
      "im.dstype.displaytype" : "state",
      "im.identity-tags" : "name",
      "im.metric-type" : "ts",
      "im.name" : "hardware-element-status",
      "im.step" : "300",
      "live-config" : "true",
      "name" : "Chassis 1: PowerUnit(NA): bay 5"
    },
    "value" : "0.0"
  }, {
    "tags" : {
      "display-name" : "Hardware Status",
      "im.dstype" : "gauge",
      "im.dstype.displaytype" : "state",
      "im.identity-tags" : "name",
      "im.metric-type" : "ts",
      "im.name" : "hardware-element-status",
      "im.step" : "300",
      "live-config" : "true",
      "name" : "Chassis 1: PowerUnit(NA): bay 6"
    },
    "value" : "0.0"
  }, {
    "tags" : {
      "display-name" : "Hardware Status",
      "im.dstype" : "gauge",
      "im.dstype.displaytype" : "state",
      "im.identity-tags" : "name",
      "im.metric-type" : "ts",
      "im.name" : "hardware-element-status",
      "im.step" : "300",
      "live-config" : "true",
      "name" : "Chassis 1: PowerUnit(NA): bay 7"
    },
    "value" : "0.0"
  }, {
    "tags" : {
      "display-name" : "Hardware Status",
      "im.dstype" : "gauge",
      "im.dstype.displaytype" : "state",
      "im.identity-tags" : "name",
      "im.metric-type" : "ts",
      "im.name" : "hardware-element-status",
      "im.step" : "300",
      "live-config" : "true",
      "name" : "Chassis 1: PowerUnit(NA): bay 8"
    },
    "value" : "0.0"
  }, {
    "tags" : {
      "display-name" : "Hardware Status",
      "im.dstype" : "gauge",
      "im.dstype.displaytype" : "state",
      "im.identity-tags" : "name",
      "im.metric-type" : "ts",
      "im.name" : "hardware-element-status",
      "im.step" : "300",
      "live-config" : "true",
      "name" : "Chassis 1: PowerUnit(NA): bay 9"
    },
    "value" : "0.0"
  }, {
    "tags" : {
      "display-name" : "Hardware Status",
      "im.dstype" : "gauge",
      "im.dstype.displaytype" : "state",
      "im.identity-tags" : "name",
      "im.metric-type" : "ts",
      "im.name" : "hardware-element-status",
      "im.step" : "300",
      "live-config" : "true",
      "name" : "Chassis 1: SSM: bay 1"
    },
    "value" : "1.0"
  }, {
    "tags" : {
      "display-name" : "Hardware Status",
      "im.dstype" : "gauge",
      "im.dstype.displaytype" : "state",
      "im.identity-tags" : "name",
      "im.metric-type" : "ts",
      "im.name" : "hardware-element-status",
      "im.step" : "300",
      "live-config" : "true",
      "name" : "Chassis 1: SSM: bay 2"
    },
    "value" : "1.0"
  }, {
    "tags" : {
      "display-name" : "Hardware Status",
      "im.dstype" : "gauge",
      "im.dstype.displaytype" : "state",
      "im.identity-tags" : "name",
      "im.metric-type" : "ts",
      "im.name" : "hardware-element-status",
      "im.step" : "300",
      "live-config" : "true",
      "name" : "Chassis 2: CMM: bay 1"
    },
    "value" : "1.0"
  }, {
    "tags" : {
      "display-name" : "Hardware Status",
      "im.dstype" : "gauge",
      "im.dstype.displaytype" : "state",
      "im.identity-tags" : "name",
      "im.metric-type" : "ts",
      "im.name" : "hardware-element-status",
      "im.step" : "300",
      "live-config" : "true",
      "name" : "Chassis 2: CMM: bay 2"
    },
    "value" : "0.0"
  }, {
    "tags" : {
      "display-name" : "Hardware Status",
      "im.dstype" : "gauge",
      "im.dstype.displaytype" : "state",
      "im.identity-tags" : "name",
      "im.metric-type" : "ts",
      "im.name" : "hardware-element-status",
      "im.step" : "300",
      "live-config" : "true",
      "name" : "Chassis 2: CPUtemp: blade 1 CPU0"
    },
    "value" : "1.0"
  }, {
    "tags" : {
      "display-name" : "Hardware Status",
      "im.dstype" : "gauge",
      "im.dstype.displaytype" : "state",
      "im.identity-tags" : "name",
      "im.metric-type" : "ts",
      "im.name" : "hardware-element-status",
      "im.step" : "300",
      "live-config" : "true",
      "name" : "Chassis 2: CPUtemp: blade 1 CPU1"
    },
    "value" : "1.0"
  }, {
    "tags" : {
      "display-name" : "Hardware Status",
      "im.dstype" : "gauge",
      "im.dstype.displaytype" : "state",
      "im.identity-tags" : "name",
      "im.metric-type" : "ts",
      "im.name" : "hardware-element-status",
      "im.step" : "300",
      "live-config" : "true",
      "name" : "Chassis 2: CPUtemp: blade 2 CPU0"
    },
    "value" : "1.0"
  }, {
    "tags" : {
      "display-name" : "Hardware Status",
      "im.dstype" : "gauge",
      "im.dstype.displaytype" : "state",
      "im.identity-tags" : "name",
      "im.metric-type" : "ts",
      "im.name" : "hardware-element-status",
      "im.step" : "300",
      "live-config" : "true",
      "name" : "Chassis 2: CPUtemp: blade 2 CPU1"
    },
    "value" : "1.0"
  }, {
    "tags" : {
      "display-name" : "Hardware Status",
      "im.dstype" : "gauge",
      "im.dstype.displaytype" : "state",
      "im.identity-tags" : "name",
      "im.metric-type" : "ts",
      "im.name" : "hardware-element-status",
      "im.step" : "300",
      "live-config" : "true",
      "name" : "Chassis 2: CPUtemp: blade 3 CPU0"
    },
    "value" : "1.0"
  }, {
    "tags" : {
      "display-name" : "Hardware Status",
      "im.dstype" : "gauge",
      "im.dstype.displaytype" : "state",
      "im.identity-tags" : "name",
      "im.metric-type" : "ts",
      "im.name" : "hardware-element-status",
      "im.step" : "300",
      "live-config" : "true",
      "name" : "Chassis 2: CPUtemp: blade 3 CPU1"
    },
    "value" : "1.0"
  }, {
    "tags" : {
      "display-name" : "Hardware Status",
      "im.dstype" : "gauge",
      "im.dstype.displaytype" : "state",
      "im.identity-tags" : "name",
      "im.metric-type" : "ts",
      "im.name" : "hardware-element-status",
      "im.step" : "300",
      "live-config" : "true",
      "name" : "Chassis 2: Fan: bay 1 fan 1"
    },
    "value" : "1.0"
  }, {
    "tags" : {
      "display-name" : "Hardware Status",
      "im.dstype" : "gauge",
      "im.dstype.displaytype" : "state",
      "im.identity-tags" : "name",
      "im.metric-type" : "ts",
      "im.name" : "hardware-element-status",
      "im.step" : "300",
      "live-config" : "true",
      "name" : "Chassis 2: Fan: bay 1 fan 2"
    },
    "value" : "1.0"
  }, {
    "tags" : {
      "display-name" : "Hardware Status",
      "im.dstype" : "gauge",
      "im.dstype.displaytype" : "state",
      "im.identity-tags" : "name",
      "im.metric-type" : "ts",
      "im.name" : "hardware-element-status",
      "im.step" : "300",
      "live-config" : "true",
      "name" : "Chassis 2: Fan: bay 2 fan 1"
    },
    "value" : "1.0"
  }, {
    "tags" : {
      "display-name" : "Hardware Status",
      "im.dstype" : "gauge",
      "im.dstype.displaytype" : "state",
      "im.identity-tags" : "name",
      "im.metric-type" : "ts",
      "im.name" : "hardware-element-status",
      "im.step" : "300",
      "live-config" : "true",
      "name" : "Chassis 2: Fan: bay 2 fan 2"
    },
    "value" : "1.0"
  }, {
    "tags" : {
      "display-name" : "Hardware Status",
      "im.dstype" : "gauge",
      "im.dstype.displaytype" : "state",
      "im.identity-tags" : "name",
      "im.metric-type" : "ts",
      "im.name" : "hardware-element-status",
      "im.step" : "300",
      "live-config" : "true",
      "name" : "Chassis 2: Fan: bay 3 fan 1"
    },
    "value" : "1.0"
  }, {
    "tags" : {
      "display-name" : "Hardware Status",
      "im.dstype" : "gauge",
      "im.dstype.displaytype" : "state",
      "im.identity-tags" : "name",
      "im.metric-type" : "ts",
      "im.name" : "hardware-element-status",
      "im.step" : "300",
      "live-config" : "true",
      "name" : "Chassis 2: Fan: bay 3 fan 2"
    },
    "value" : "1.0"
  }, {
    "tags" : {
      "display-name" : "Hardware Status",
      "im.dstype" : "gauge",
      "im.dstype.displaytype" : "state",
      "im.identity-tags" : "name",
      "im.metric-type" : "ts",
      "im.name" : "hardware-element-status",
      "im.step" : "300",
      "live-config" : "true",
      "name" : "Chassis 2: PowerConsumption: N/A"
    },
    "value" : "0.0"
  }, {
    "tags" : {
      "display-name" : "Hardware Status",
      "im.dstype" : "gauge",
      "im.dstype.displaytype" : "state",
      "im.identity-tags" : "name",
      "im.metric-type" : "ts",
      "im.name" : "hardware-element-status",
      "im.step" : "300",
      "live-config" : "true",
      "name" : "Chassis 2: PowerUnit(NA): bay 1"
    },
    "value" : "1.0"
  }, {
    "tags" : {
      "display-name" : "Hardware Status",
      "im.dstype" : "gauge",
      "im.dstype.displaytype" : "state",
      "im.identity-tags" : "name",
      "im.metric-type" : "ts",
      "im.name" : "hardware-element-status",
      "im.step" : "300",
      "live-config" : "true",
      "name" : "Chassis 2: PowerUnit(NA): bay 10"
    },
    "value" : "0.0"
  }, {
    "tags" : {
      "display-name" : "Hardware Status",
      "im.dstype" : "gauge",
      "im.dstype.displaytype" : "state",
      "im.identity-tags" : "name",
      "im.metric-type" : "ts",
      "im.name" : "hardware-element-status",
      "im.step" : "300",
      "live-config" : "true",
      "name" : "Chassis 2: PowerUnit(NA): bay 2"
    },
    "value" : "1.0"
  }, {
    "tags" : {
      "display-name" : "Hardware Status",
      "im.dstype" : "gauge",
      "im.dstype.displaytype" : "state",
      "im.identity-tags" : "name",
      "im.metric-type" : "ts",
      "im.name" : "hardware-element-status",
      "im.step" : "300",
      "live-config" : "true",
      "name" : "Chassis 2: PowerUnit(NA): bay 3"
    },
    "value" : "1.0"
  }, {
    "tags" : {
      "display-name" : "Hardware Status",
      "im.dstype" : "gauge",
      "im.dstype.displaytype" : "state",
      "im.identity-tags" : "name",
      "im.metric-type" : "ts",
      "im.name" : "hardware-element-status",
      "im.step" : "300",
      "live-config" : "true",
      "name" : "Chassis 2: PowerUnit(NA): bay 4"
    },
    "value" : "1.0"
  }, {
    "tags" : {
      "display-name" : "Hardware Status",
      "im.dstype" : "gauge",
      "im.dstype.displaytype" : "state",
      "im.identity-tags" : "name",
      "im.metric-type" : "ts",
      "im.name" : "hardware-element-status",
      "im.step" : "300",
      "live-config" : "true",
      "name" : "Chassis 2: PowerUnit(NA): bay 5"
    },
    "value" : "0.0"
  }, {
    "tags" : {
      "display-name" : "Hardware Status",
      "im.dstype" : "gauge",
      "im.dstype.displaytype" : "state",
      "im.identity-tags" : "name",
      "im.metric-type" : "ts",
      "im.name" : "hardware-element-status",
      "im.step" : "300",
      "live-config" : "true",
      "name" : "Chassis 2: PowerUnit(NA): bay 6"
    },
    "value" : "0.0"
  }, {
    "tags" : {
      "display-name" : "Hardware Status",
      "im.dstype" : "gauge",
      "im.dstype.displaytype" : "state",
      "im.identity-tags" : "name",
      "im.metric-type" : "ts",
      "im.name" : "hardware-element-status",
      "im.step" : "300",
      "live-config" : "true",
      "name" : "Chassis 2: PowerUnit(NA): bay 7"
    },
    "value" : "0.0"
  }, {
    "tags" : {
      "display-name" : "Hardware Status",
      "im.dstype" : "gauge",
      "im.dstype.displaytype" : "state",
      "im.identity-tags" : "name",
      "im.metric-type" : "ts",
      "im.name" : "hardware-element-status",
      "im.step" : "300",
      "live-config" : "true",
      "name" : "Chassis 2: PowerUnit(NA): bay 8"
    },
    "value" : "0.0"
  }, {
    "tags" : {
      "display-name" : "Hardware Status",
      "im.dstype" : "gauge",
      "im.dstype.displaytype" : "state",
      "im.identity-tags" : "name",
      "im.metric-type" : "ts",
      "im.name" : "hardware-element-status",
      "im.step" : "300",
      "live-config" : "true",
      "name" : "Chassis 2: PowerUnit(NA): bay 9"
    },
    "value" : "0.0"
  }, {
    "tags" : {
      "display-name" : "Hardware Status",
      "im.dstype" : "gauge",
      "im.dstype.displaytype" : "state",
      "im.identity-tags" : "name",
      "im.metric-type" : "ts",
      "im.name" : "hardware-element-status",
      "im.step" : "300",
      "live-config" : "true",
      "name" : "Chassis 2: SSM: bay 1"
    },
    "value" : "0.0"
  }, {
    "tags" : {
      "display-name" : "Hardware Status",
      "im.dstype" : "gauge",
      "im.dstype.displaytype" : "state",
      "im.identity-tags" : "name",
      "im.metric-type" : "ts",
      "im.name" : "hardware-element-status",
      "im.step" : "300",
      "live-config" : "true",
      "name" : "Chassis 2: SSM: bay 2"
    },
    "value" : "1.0"
  } ]
}
