{
  "command" : "cpembedded-list_coredump",
  "metrics" : [ {
    "tags" : [ {
      "im.name" : "core-dumps"
    }, {
      "im.metric-type" : "runtime"
    } ],
    "value" : [ {
      "created" : "1479513600",
      "path" : "/var/log/dump/usermode/testcrash.gz"
    }, {
      "created" : "1477958400",
      "path" : "/var/log/dump/usermode/testcrash2.gz"
    } ]
  } ]
}
