{
  "command" : "cpembedded-policy-fingerprint",
  "metrics" : [ {
    "tags" : {
      "im.metric-type" : "runtime",
      "im.name" : "policy-installed-fingerprint"
    },
    "value" : {
      "value" : "Lima-Office 100f8380f6959db23dde60660949f31a"
    }
  } ]
}
