{
  "command" : "cpembedded-clish_show_users",
  "metrics" : [ {
    "tags" : {
      "im.metric-type" : "runtime",
      "im.name" : "users"
    },
    "value" : [ {
      "username" : "admin"
    }, {
      "username" : "restorepoint"
    }, {
      "username" : "indeni-new"
    } ]
  } ]
}
