{
  "command" : "ios-show-version",
  "metrics" : [ {
    "tags" : {
      "display-name" : "Uptime",
      "im.dstype" : "gauge",
      "im.metric-type" : "ts",
      "im.name" : "uptime-seconds",
      "live-config" : "true"
    },
    "value" : "325320.0"
  }, {
    "tags" : {
      "display-name" : "Hostname",
      "im.metric-type" : "runtime",
      "im.name" : "hostname",
      "live-config" : "true"
    },
    "value" : {
      "value" : "r1"
    }
  }, {
    "tags" : {
      "im.metric-type" : "runtime",
      "im.name" : "os-name"
    },
    "value" : {
      "value" : "ios"
    }
  }, {
    "tags" : {
      "im.metric-type" : "runtime",
      "im.name" : "os-version"
    },
    "value" : {
      "value" : "15.2(4)S5"
    }
  }, {
    "tags" : {
      "im.metric-type" : "runtime",
      "im.name" : "vendor"
    },
    "value" : {
      "value" : "cisco"
    }
  } ]
}
