{
  "command" : "ios-show-version",
  "tags" : {
    "hostname" : "R1",
    "model" : "7206VXR",
    "os.name" : "ios",
    "os.version" : "15.2(4)S5",
    "serial" : "4279256517",
    "vendor" : "cisco"
  }
}
