{
  "command" : "chkp-os-file-md5sum",
  "metrics" : [ {
    "tags" : {
      "im.metric-type" : "runtime",
      "im.name" : "file-md5sum",
      "path" : "/etc/grub.conf"
    },
    "value" : {
      "value" : "f9a4afdb328f089243408f00b9ee7053"
    }
  }, {
    "tags" : {
      "im.metric-type" : "runtime",
      "im.name" : "file-md5sum",
      "path" : "/etc/modprobe.conf"
    },
    "value" : {
      "value" : "b393a9cb000c3e8f7d59beb7cb7ffa7d"
    }
  }, {
    "tags" : {
      "im.metric-type" : "runtime",
      "im.name" : "file-md5sum",
      "path" : "/etc/rc.local"
    },
    "value" : {
      "value" : "c4fb01aba0e456db5b8afc644a720276"
    }
  }, {
    "tags" : {
      "im.metric-type" : "runtime",
      "im.name" : "file-md5sum",
      "path" : "/etc/rc.sysinit"
    },
    "value" : {
      "value" : "e0e6f9828be3fcc04fcb1eb54a79a15f"
    }
  }, {
    "tags" : {
      "im.metric-type" : "runtime",
      "im.name" : "file-md5sum",
      "path" : "/etc/resolv.conf"
    },
    "value" : {
      "value" : "60776fb6352adb149ea53a6f374c3246"
    }
  }, {
    "tags" : {
      "im.metric-type" : "runtime",
      "im.name" : "file-md5sum",
      "path" : "/etc/sysctl.conf"
    },
    "value" : {
      "value" : "f198a169fa48f0d46c389cc430ac3d86"
    }
  }, {
    "tags" : {
      "im.metric-type" : "runtime",
      "im.name" : "file-md5sum",
      "path" : "/etc/syslog.conf"
    },
    "value" : {
      "value" : "c6ecbd8a525cb38645183403bbf635f0"
    }
  }, {
    "tags" : {
      "im.metric-type" : "runtime",
      "im.name" : "file-md5sum",
      "path" : "/opt/CPsuite-R77/fw1/conf/local.arp"
    },
    "value" : {
      "value" : "6b08604c9baa806428d94e3f9f44e753"
    }
  }, {
    "tags" : {
      "im.metric-type" : "runtime",
      "im.name" : "file-md5sum",
      "path" : "/opt/CPsuite-R77/fw1/conf/updates.def"
    },
    "value" : {
      "value" : "8decc6f151846976c5c257c381c1866a"
    }
  } ]
}
