{
  "command" : "chkp-secureplatform-sysconfig_ntp",
  "metrics" : [ {
    "tags" : {
      "display-name" : "NTP Servers",
      "im.metric-type" : "runtime",
      "im.name" : "ntp-servers",
      "live-config" : "true"
    },
    "value" : [ {
      "ipaddress" : "10.10.1.75"
    }, {
      "ipaddress" : "1.1.1.1"
    } ]
  } ]
}
