{
  "command" : "chkp-ipso-file-md5sum",
  "metrics" : [ {
    "tags" : {
      "im.metric-type" : "runtime",
      "im.name" : "file-md5sum",
      "path" : "/etc/resolv.conf"
    },
    "value" : {
      "value" : "f5a30ff832ceef89be66250aa2bea629"
    }
  }, {
    "tags" : {
      "im.metric-type" : "runtime",
      "im.name" : "file-md5sum",
      "path" : "/etc/sysctl.conf"
    },
    "value" : {
      "value" : "0c977eeaad3b10135a362f067f7532bf"
    }
  }, {
    "tags" : {
      "im.metric-type" : "runtime",
      "im.name" : "file-md5sum",
      "path" : "/etc/syslog.conf"
    },
    "value" : {
      "value" : "d35b14461f0855e472d243e44a711003"
    }
  }, {
    "tags" : {
      "im.metric-type" : "runtime",
      "im.name" : "file-md5sum",
      "path" : "/opt/CPsuite-R76/fw1/conf/gui_clients.def"
    },
    "value" : {
      "value" : "9bc9ec9d2bddb6d77f0555dff8440c25"
    }
  }, {
    "tags" : {
      "im.metric-type" : "runtime",
      "im.name" : "file-md5sum",
      "path" : "/opt/CPsuite-R76/fw1/conf/updates.def"
    },
    "value" : {
      "value" : "63c36fe5c204b12b265657f8a548a980"
    }
  } ]
}
