{
  "command" : "chkp-ipso-throughput-alert",
  "metrics" : [ {
    "tags" : {
      "display-name" : "Network Interfaces - Throughput Receive",
      "im.dstype" : "gauge",
      "im.dstype.displaytype" : "percentage",
      "im.identity-tags" : "name",
      "im.metric-type" : "ts",
      "im.name" : "network-interface-rx-util-percentage",
      "live-config" : "true",
      "name" : "eth1"
    },
    "value" : "0.0"
  }, {
    "tags" : {
      "display-name" : "Network Interfaces - Throughput Receive",
      "im.dstype" : "gauge",
      "im.dstype.displaytype" : "percentage",
      "im.identity-tags" : "name",
      "im.metric-type" : "ts",
      "im.name" : "network-interface-rx-util-percentage",
      "live-config" : "true",
      "name" : "eth2"
    },
    "value" : "8.019151999999998"
  }, {
    "tags" : {
      "display-name" : "Network Interfaces - Throughput Receive",
      "im.dstype" : "gauge",
      "im.dstype.displaytype" : "percentage",
      "im.identity-tags" : "name",
      "im.metric-type" : "ts",
      "im.name" : "network-interface-rx-util-percentage",
      "live-config" : "true",
      "name" : "eth3"
    },
    "value" : "0.0"
  }, {
    "tags" : {
      "display-name" : "Network Interfaces - Throughput Receive",
      "im.dstype" : "gauge",
      "im.dstype.displaytype" : "percentage",
      "im.identity-tags" : "name",
      "im.metric-type" : "ts",
      "im.name" : "network-interface-rx-util-percentage",
      "live-config" : "true",
      "name" : "eth4"
    },
    "value" : "0.0"
  }, {
    "tags" : {
      "display-name" : "Network Interfaces - Throughput Transmit",
      "im.dstype" : "gauge",
      "im.dstype.displaytype" : "percentage",
      "im.identity-tags" : "name",
      "im.metric-type" : "ts",
      "im.name" : "network-interface-tx-util-percentage",
      "live-config" : "true",
      "name" : "eth1"
    },
    "value" : "0.0"
  }, {
    "tags" : {
      "display-name" : "Network Interfaces - Throughput Transmit",
      "im.dstype" : "gauge",
      "im.dstype.displaytype" : "percentage",
      "im.identity-tags" : "name",
      "im.metric-type" : "ts",
      "im.name" : "network-interface-tx-util-percentage",
      "live-config" : "true",
      "name" : "eth2"
    },
    "value" : "0.038944"
  }, {
    "tags" : {
      "display-name" : "Network Interfaces - Throughput Transmit",
      "im.dstype" : "gauge",
      "im.dstype.displaytype" : "percentage",
      "im.identity-tags" : "name",
      "im.metric-type" : "ts",
      "im.name" : "network-interface-tx-util-percentage",
      "live-config" : "true",
      "name" : "eth3"
    },
    "value" : "0.0"
  }, {
    "tags" : {
      "display-name" : "Network Interfaces - Throughput Transmit",
      "im.dstype" : "gauge",
      "im.dstype.displaytype" : "percentage",
      "im.identity-tags" : "name",
      "im.metric-type" : "ts",
      "im.name" : "network-interface-tx-util-percentage",
      "live-config" : "true",
      "name" : "eth4"
    },
    "value" : "0.0"
  } ]
}
