{
  "command" : "junos-show-configuration-snmp",
  "metrics" : [ {
    "tags" : {
      "im.metric-type" : "runtime",
      "im.name" : "snmp-communities"
    },
    "value" : [ {
      "permissions" : "read-write",
      "community" : "admin"
    }, {
      "permissions" : "read-only",
      "community" : "operator"
    } ]
  }, {
    "tags" : {
      "im.metric-type" : "runtime",
      "im.name" : "snmp-contact"
    },
    "value" : {
      "value" : "indeni@indeni.org"
    }
  }, {
    "tags" : {
      "im.metric-type" : "runtime",
      "im.name" : "snmp-enabled"
    },
    "value" : {
      "value" : "enabled"
    }
  }, {
    "tags" : {
      "im.metric-type" : "runtime",
      "im.name" : "snmp-location"
    },
    "value" : {
      "value" : "indeni lab"
    }
  }, {
    "tags" : {
      "im.metric-type" : "runtime",
      "im.name" : "snmp-traps-receiver"
    },
    "value" : [ {
      "version" : "v1",
      "ip" : "10.10.10.1",
      "community" : "trap-system"
    }, {
      "ip" : "172.16.1.10",
      "community" : "trap-system",
      "version" : "v1"
    }, {
      "ip" : "192.168.1.225",
      "version" : "v1",
      "community" : "trap-system"
    }, {
      "community" : "trap-auth",
      "ip" : "140.142.41.100",
      "version" : "v2"
    } ]
  }, {
    "tags" : {
      "im.metric-type" : "runtime",
      "im.name" : "snmp-traps-status"
    },
    "value" : [ {
      "vrrp-events" : "disabled"
    }, {
      "chassis" : "enabled"
    }, {
      "authentication" : "enabled"
    } ]
  }, {
    "tags" : {
      "im.metric-type" : "runtime",
      "im.name" : "snmp-users"
    },
    "value" : [ {
      "permissions" : "authentication",
      "community" : "tom"
    }, {
      "permissions" : "privacy",
      "community" : "gongya"
    } ]
  }, {
    "tags" : {
      "im.metric-type" : "runtime",
      "im.name" : "snmp-version"
    },
    "value" : {
      "value" : "v1|v2|v3"
    }
  }, {
    "tags" : {
      "im.metric-type" : "runtime",
      "im.name" : "unencrypted-snmp-configured"
    },
    "value" : {
      "value" : "true"
    }
  } ]
}
